\relax 
\@writefile{toc}{\contentsline {section}{\numberline {1}Resumen}{1}}
\@writefile{toc}{\contentsline {section}{\numberline {2}Introducci\IeC {\'o}n}{1}}
\@writefile{toc}{\contentsline {subsection}{\numberline {2.1}Preliminares Matem\IeC {\'a}ticos}{1}}
\@writefile{toc}{\contentsline {subsubsection}{\numberline {2.1.1}Generaci\IeC {\'o}n de Variables Aleatorias Exponenciales}{1}}
\@writefile{toc}{\contentsline {subsubsection}{\numberline {2.1.2}Estimaci\IeC {\'o}n del tiempo medio de fallo}{1}}
\@writefile{toc}{\contentsline {subsubsection}{\numberline {2.1.3}Desvio Est\IeC {\'a}ndar}{1}}
\@writefile{toc}{\contentsline {subsection}{\numberline {2.2}Simulaci\IeC {\'o}n}{1}}
\@writefile{toc}{\contentsline {section}{\numberline {3}Resoluci\IeC {\'o}n}{2}}
\@writefile{toc}{\contentsline {subsection}{\numberline {3.1}Caso 1}{2}}
\@writefile{toc}{\contentsline {subsubsection}{\numberline {3.1.1}Algoritmo y descripci\IeC {\'o}n de las Variables}{2}}
\@writefile{toc}{\contentsline {subsection}{\numberline {3.2}Caso 3}{3}}
\@writefile{toc}{\contentsline {subsubsection}{\numberline {3.2.1}Algoritmo y descripci\IeC {\'o}n de las variables}{3}}
\@writefile{toc}{\contentsline {section}{\numberline {4}Resultados}{5}}
\@writefile{toc}{\contentsline {section}{\numberline {5}Conclusi\IeC {\'o}n}{8}}
\@writefile{toc}{\contentsline {section}{\numberline {6}Ap\IeC {\'e}ndice}{9}}
