En 100 iteraciones con S=2, OP=2, Esperanza: 2.50382182293, Desvio: 2.28662598528
En 1000 iteraciones con S=2, OP=2, Esperanza: 2.49766857327, Desvio: 2.34069237975
En 10000 iteraciones con S=2, OP=2, Esperanza: 2.57409830899, Desvio: 2.4463143195
