\relax 
\@writefile{toc}{\contentsline {section}{\numberline {1}Resumen}{1}}
\@writefile{toc}{\contentsline {section}{\numberline {2}Introducci\IeC {\'o}n}{1}}
\@writefile{toc}{\contentsline {subsection}{\numberline {2.1}Datos}{1}}
\@writefile{toc}{\contentsline {subsection}{\numberline {2.2}Preliminares Matem\IeC {\'a}ticos}{1}}
\@writefile{toc}{\contentsline {subsubsection}{\numberline {2.2.1}Estimadores de M\IeC {\'a}xima Verosimilitud}{1}}
\@writefile{toc}{\contentsline {subsubsection}{\numberline {2.2.2}Pruebas de Bondad de Ajuste}{2}}
\@writefile{toc}{\contentsline {section}{\numberline {3}Resoluci\IeC {\'o}n}{3}}
\@writefile{toc}{\contentsline {subsection}{\numberline {3.1}Ejercicio 1}{3}}
\@writefile{toc}{\contentsline {subsection}{\numberline {3.2}Ejercicio 2}{3}}
\@writefile{toc}{\contentsline {subsubsection}{\numberline {3.2.1}Inciso a.}{3}}
\@writefile{toc}{\contentsline {subsubsection}{\numberline {3.2.2}Inciso b.}{4}}
\@writefile{toc}{\contentsline {subsubsection}{\numberline {3.2.3}Inciso c.}{4}}
\@writefile{toc}{\contentsline {subsection}{\numberline {3.3}Ejercicio 3}{4}}
\@writefile{toc}{\contentsline {subsubsection}{\numberline {3.3.1}Normal}{4}}
\@writefile{toc}{\contentsline {subsubsection}{\numberline {3.3.2}Lognormal}{5}}
\@writefile{toc}{\contentsline {subsubsection}{\numberline {3.3.3}Gamma}{5}}
\@writefile{toc}{\contentsline {subsection}{\numberline {3.4}Ejercicio 4}{6}}
\@writefile{toc}{\contentsline {subsubsection}{\numberline {3.4.1}Inciso a.}{6}}
\@writefile{toc}{\contentsline {subsubsection}{\numberline {3.4.2}Inciso b.}{7}}
\@writefile{toc}{\contentsline {subsubsection}{\numberline {3.4.3}Inciso c.}{8}}
\@writefile{toc}{\contentsline {subsubsection}{\numberline {3.4.4}Inciso d.}{8}}
\@writefile{toc}{\contentsline {subsection}{\numberline {3.5}Ejercicio 5}{9}}
\@writefile{toc}{\contentsline {subsubsection}{\numberline {3.5.1}Inciso a.}{9}}
\@writefile{toc}{\contentsline {subsubsection}{\numberline {3.5.2}Inciso b.}{9}}
\@writefile{toc}{\contentsline {subsubsection}{\numberline {3.5.3}Inciso c.}{10}}
\@writefile{toc}{\contentsline {subsubsection}{\numberline {3.5.4}Inciso d.}{10}}
\@writefile{toc}{\contentsline {section}{\numberline {4}Conclusi\IeC {\'o}n}{11}}
